Access Datasets from the Rdatasets Archive • Rdatasets
…
Output Formats

The package supports three output formats that can be set globally:

# Default: data.frame (no additional dependencies)
options(Rdatasets_cache = FALSE)
options(Rdatasets_class = "data.frame")
rddata("iris") |> class()
#> [1] "data.frame"

# Tibble format (requires tibble package)
options(Rdatasets_class = "tibble")
rddata("iris")
#> # A tibble: 150 × 6
#>    rownames Sepal.Length Sepal.Width Petal.Length Petal.Width Species
#>       <int>        <dbl>       <dbl>        <dbl>       <dbl> <chr>  
#>  1        1          5.1         3.5          1.4         0.2 setosa 
#>  2        2          4.9         3            1.4         0.2 setosa 
#>  3        3          4.7         3.2          1.3         0.2 setosa 
#>  4        4          4.6         3.1          1.5         0.2 setosa 
#>  5        5          5           3.6          1.4         0.2 setosa 
#>  6        6          5.4         3.9          1.7         0.4 setosa 
#>  7        7          4.6         3.4          1.4         0.3 setosa 
#>  8        8          5           3.4          1.5         0.2 setosa 
#>  9        9          4.4         2.9          1.4         0.2 setosa 
#> 10       10          4.9         3.1          1.5         0.1 setosa 
#> # ℹ 140 more rows
…
